<define-tag pagetitle>DLA-1043-1 mysql-5.5</define-tag>
<define-tag report_date>2017-7-28</define-tag>
<define-tag secrefs>CVE-2017-3635 CVE-2017-3636 CVE-2017-3641 CVE-2017-3648. CVE-2017-3651 CVE-2017-3652 CVE-2017-3653 Bug#868788</define-tag>
<define-tag packages>mysql-5.5</define-tag>
<define-tag isvulnerable>yes</define-tag>
<define-tag fixed>yes</define-tag>
<define-tag fixed-section>no</define-tag>

#use wml::debian::security

