<define-tag pagetitle>DLA-985-1 libsndfile</define-tag>
<define-tag report_date>2017-6-15</define-tag>
<define-tag secrefs>CVE-2017-6892 Bug##864704</define-tag>
<define-tag packages>libsndfile</define-tag>
<define-tag isvulnerable>yes</define-tag>
<define-tag fixed>yes</define-tag>
<define-tag fixed-section>no</define-tag>

#use wml::debian::security

