<define-tag pagetitle>DLA-1218-1 rsync</define-tag>
<define-tag report_date>2017-12-22</define-tag>
<define-tag secrefs>CVE-2017-16548 CVE-2017-17433 CVE-2017-17434</define-tag>
<define-tag packages>rsync</define-tag>
<define-tag isvulnerable>yes</define-tag>
<define-tag fixed>yes</define-tag>
<define-tag fixed-section>no</define-tag>

#use wml::debian::security

