<define-tag pagetitle>DLA-1538-1 tinc</define-tag>
<define-tag report_date>2018-10-8</define-tag>
<define-tag secrefs>CVE-2018-16737 CVE-2018-16758</define-tag>
<define-tag packages>tinc</define-tag>
<define-tag isvulnerable>yes</define-tag>
<define-tag fixed>yes</define-tag>
<define-tag fixed-section>no</define-tag>

#use wml::debian::security

