<define-tag pagetitle>DLA-1813-1 php5</define-tag>
<define-tag report_date>2019-06-03</define-tag>
<define-tag secrefs>CVE-2019-11039 CVE-2019-11040</define-tag>
<define-tag packages>php5</define-tag>
<define-tag isvulnerable>yes</define-tag>
<define-tag fixed>yes</define-tag>
<define-tag fixed-section>no</define-tag>

#use wml::debian::security

