<define-tag pagetitle>DLA-692-1 tiff3</define-tag>
<define-tag report_date>2016-11-2</define-tag>
<define-tag secrefs>CVE-2015-7554 CVE-2016-5318</define-tag>
<define-tag packages>tiff3</define-tag>
<define-tag isvulnerable>yes</define-tag>
<define-tag fixed>yes</define-tag>
<define-tag fixed-section>no</define-tag>

#use wml::debian::security

